[
  {
    "id": "ct02",
    "title": "Conlang Test #2",
    "titleLang": "en",
    "authors": {
      "music": "+merlan #flirora",
      "lyrics": "+merlan #flirora",
      "voice": "Eleanor Forte AI (Synthesizer V Studio)"
    },
    "lang": "art-x-v3-flicrinc",
    "links": {
      "yt": "https://www.youtube.com/watch?v=TG3-HauOyRY"
    },
    "file": "songs/ct02.flac",
    "maps": [
      {
        "id": "easy",
        "file": "maps/ct02-easy.txt",
        "label": "Easy"
      },
      {
        "id": "normal",
        "file": "maps/ct02-normal.txt",
        "label": "Normal"
      }
    ]
  }
]